0	2
0.001	1.99744
0.002	1.99488
0.003	1.99233
0.004	1.98978
0.005	1.98723
0.006	1.98469
0.007	1.98215
0.008	1.97961
0.009	1.97708
0.01	1.97455
0.011	1.97202
0.012	1.9695
0.013	1.96698
0.014	1.96446
0.015	1.96195
0.016	1.95944
0.017	1.95693
0.018	1.95443
0.019	1.95193
0.02	1.94943
0.021	1.94694
0.022	1.94445
0.023	1.94196
0.024	1.93948
0.025	1.937
0.026	1.93453
0.027	1.93205
0.028	1.92958
0.029	1.92712
0.03	1.92465
0.031	1.92219
0.032	1.91974
0.033	1.91729
0.034	1.91484
0.035	1.91239
0.036	1.90995
0.037	1.90751
0.038	1.90507
0.039	1.90264
0.04	1.90021
0.041	1.89778
0.042	1.89536
0.043	1.89294
0.044	1.89052
0.045	1.88811
0.046	1.8857
0.047	1.8833
0.048	1.88089
0.049	1.87849
0.05	1.8761
0.051	1.8737
0.052	1.87131
0.053	1.86893
0.054	1.86655
0.055	1.86417
0.056	1.86179
0.057	1.85942
0.058	1.85705
0.059	1.85468
0.06	1.85232
0.061	1.84996
0.062	1.8476
0.063	1.84525
0.064	1.8429
0.065	1.84055
0.066	1.83821
0.067	1.83587
0.068	1.83353
0.069	1.8312
0.07	1.82887
0.071	1.82655
0.072	1.82422
0.073	1.8219
0.074	1.81959
0.075	1.81727
0.076	1.81497
0.077	1.81266
0.078	1.81036
0.079	1.80806
0.08	1.80576
0.081	1.80347
0.082	1.80118
0.083	1.7989
0.084	1.79662
0.085	1.79434
0.086	1.79206
0.087	1.78979
0.088	1.78752
0.089	1.78526
0.09	1.783
0.091	1.78074
0.092	1.77849
0.093	1.77624
0.094	1.77399
0.095	1.77175
0.096	1.76951
0.097	1.76727
0.098	1.76504
0.099	1.76281
0.1	1.76058
0.101	1.75836
0.102	1.75614
0.103	1.75393
0.104	1.75172
0.105	1.74951
0.106	1.7473
0.107	1.7451
0.108	1.74291
0.109	1.74071
0.11	1.73852
0.111	1.73634
0.112	1.73415
0.113	1.73197
0.114	1.7298
0.115	1.72763
0.116	1.72546
0.117	1.72329
0.118	1.72113
0.119	1.71897
0.12	1.71682
0.121	1.71467
0.122	1.71252
0.123	1.71038
0.124	1.70824
0.125	1.7061
0.126	1.70397
0.127	1.70184
0.128	1.69972
0.129	1.6976
0.13	1.69548
0.131	1.69337
0.132	1.69126
0.133	1.68915
0.134	1.68705
0.135	1.68495
0.136	1.68285
0.137	1.68076
0.138	1.67868
0.139	1.67659
0.14	1.67451
0.141	1.67243
0.142	1.67036
0.143	1.66829
0.144	1.66623
0.145	1.66417
0.146	1.66211
0.147	1.66005
0.148	1.658
0.149	1.65596
0.15	1.65391
0.151	1.65187
0.152	1.64984
0.153	1.64781
0.154	1.64578
0.155	1.64375
0.156	1.64173
0.157	1.63972
0.158	1.6377
0.159	1.63569
0.16	1.63369
0.161	1.63169
0.162	1.62969
0.163	1.62769
0.164	1.6257
0.165	1.62372
0.166	1.62173
0.167	1.61975
0.168	1.61778
0.169	1.61581
0.17	1.61384
0.171	1.61187
0.172	1.60991
0.173	1.60796
0.174	1.606
0.175	1.60405
0.176	1.60211
0.177	1.60017
0.178	1.59823
0.179	1.59629
0.18	1.59436
0.181	1.59244
0.182	1.59051
0.183	1.58859
0.184	1.58668
0.185	1.58477
0.186	1.58286
0.187	1.58095
0.188	1.57905
0.189	1.57716
0.19	1.57526
0.191	1.57337
0.192	1.57149
0.193	1.5696
0.194	1.56773
0.195	1.56585
0.196	1.56398
0.197	1.56211
0.198	1.56025
0.199	1.55839
0.2	1.55653
0.201	1.55468
0.202	1.55283
0.203	1.55099
0.204	1.54914
0.205	1.54731
0.206	1.54547
0.207	1.54364
0.208	1.54182
0.209	1.53999
0.21	1.53817
0.211	1.53636
0.212	1.53454
0.213	1.53274
0.214	1.53093
0.215	1.52913
0.216	1.52733
0.217	1.52554
0.218	1.52375
0.219	1.52196
0.22	1.52018
0.221	1.5184
0.222	1.51662
0.223	1.51485
0.224	1.51308
0.225	1.51131
0.226	1.50955
0.227	1.50779
0.228	1.50604
0.229	1.50429
0.23	1.50254
0.231	1.5008
0.232	1.49906
0.233	1.49732
0.234	1.49559
0.235	1.49386
0.236	1.49213
0.237	1.49041
0.238	1.48869
0.239	1.48697
0.24	1.48526
0.241	1.48355
0.242	1.48185
0.243	1.48014
0.244	1.47845
0.245	1.47675
0.246	1.47506
0.247	1.47337
0.248	1.47169
0.249	1.47001
0.25	1.46833
0.251	1.46665
0.252	1.46498
0.253	1.46332
0.254	1.46165
0.255	1.45999
0.256	1.45833
0.257	1.45668
0.258	1.45503
0.259	1.45338
0.26	1.45174
0.261	1.4501
0.262	1.44846
0.263	1.44683
0.264	1.4452
0.265	1.44357
0.266	1.44195
0.267	1.44033
0.268	1.43871
0.269	1.4371
0.27	1.43549
0.271	1.43388
0.272	1.43227
0.273	1.43067
0.274	1.42908
0.275	1.42748
0.276	1.42589
0.277	1.4243
0.278	1.42272
0.279	1.42114
0.28	1.41956
0.281	1.41799
0.282	1.41641
0.283	1.41485
0.284	1.41328
0.285	1.41172
0.286	1.41016
0.287	1.4086
0.288	1.40705
0.289	1.4055
0.29	1.40396
0.291	1.40241
0.292	1.40087
0.293	1.39934
0.294	1.3978
0.295	1.39627
0.296	1.39474
0.297	1.39322
0.298	1.3917
0.299	1.39018
0.3	1.38866
0.301	1.38715
0.302	1.38564
0.303	1.38414
0.304	1.38263
0.305	1.38113
0.306	1.37964
0.307	1.37814
0.308	1.37665
0.309	1.37516
0.31	1.37368
0.311	1.3722
0.312	1.37072
0.313	1.36924
0.314	1.36777
0.315	1.3663
0.316	1.36483
0.317	1.36337
0.318	1.3619
0.319	1.36045
0.32	1.35899
0.321	1.35754
0.322	1.35609
0.323	1.35464
0.324	1.3532
0.325	1.35176
0.326	1.35032
0.327	1.34888
0.328	1.34745
0.329	1.34602
0.33	1.34459
0.331	1.34317
0.332	1.34175
0.333	1.34033
0.334	1.33891
0.335	1.3375
0.336	1.33609
0.337	1.33468
0.338	1.33327
0.339	1.33187
0.34	1.33047
0.341	1.32908
0.342	1.32768
0.343	1.32629
0.344	1.3249
0.345	1.32352
0.346	1.32213
0.347	1.32075
0.348	1.31938
0.349	1.318
0.35	1.31663
0.351	1.31526
0.352	1.31389
0.353	1.31253
0.354	1.31117
0.355	1.30981
0.356	1.30845
0.357	1.3071
0.358	1.30574
0.359	1.3044
0.36	1.30305
0.361	1.30171
0.362	1.30036
0.363	1.29903
0.364	1.29769
0.365	1.29636
0.366	1.29503
0.367	1.2937
0.368	1.29237
0.369	1.29105
0.37	1.28973
0.371	1.28841
0.372	1.28709
0.373	1.28578
0.374	1.28447
0.375	1.28316
0.376	1.28185
0.377	1.28055
0.378	1.27925
0.379	1.27795
0.38	1.27665
0.381	1.27536
0.382	1.27407
0.383	1.27278
0.384	1.27149
0.385	1.27021
0.386	1.26893
0.387	1.26765
0.388	1.26637
0.389	1.2651
0.39	1.26382
0.391	1.26255
0.392	1.26128
0.393	1.26002
0.394	1.25876
0.395	1.2575
0.396	1.25624
0.397	1.25498
0.398	1.25373
0.399	1.25247
0.4	1.25123
0.401	1.24998
0.402	1.24873
0.403	1.24749
0.404	1.24625
0.405	1.24501
0.406	1.24378
0.407	1.24254
0.408	1.24131
0.409	1.24008
0.41	1.23885
0.411	1.23763
0.412	1.23641
0.413	1.23519
0.414	1.23397
0.415	1.23275
0.416	1.23154
0.417	1.23033
0.418	1.22912
0.419	1.22791
0.42	1.2267
0.421	1.2255
0.422	1.2243
0.423	1.2231
0.424	1.2219
0.425	1.22071
0.426	1.21951
0.427	1.21832
0.428	1.21713
0.429	1.21595
0.43	1.21476
0.431	1.21358
0.432	1.2124
0.433	1.21122
0.434	1.21004
0.435	1.20887
0.436	1.2077
0.437	1.20653
0.438	1.20536
0.439	1.20419
0.44	1.20303
0.441	1.20186
0.442	1.2007
0.443	1.19954
0.444	1.19839
0.445	1.19723
0.446	1.19608
0.447	1.19493
0.448	1.19378
0.449	1.19263
0.45	1.19149
0.451	1.19034
0.452	1.1892
0.453	1.18806
0.454	1.18693
0.455	1.18579
0.456	1.18466
0.457	1.18353
0.458	1.1824
0.459	1.18127
0.46	1.18014
0.461	1.17902
0.462	1.17789
0.463	1.17677
0.464	1.17565
0.465	1.17454
0.466	1.17342
0.467	1.17231
0.468	1.1712
0.469	1.17009
0.47	1.16898
0.471	1.16787
0.472	1.16677
0.473	1.16566
0.474	1.16456
0.475	1.16346
0.476	1.16237
0.477	1.16127
0.478	1.16018
0.479	1.15908
0.48	1.15799
0.481	1.1569
0.482	1.15582
0.483	1.15473
0.484	1.15365
0.485	1.15257
0.486	1.15149
0.487	1.15041
0.488	1.14933
0.489	1.14825
0.49	1.14718
0.491	1.14611
0.492	1.14504
0.493	1.14397
0.494	1.1429
0.495	1.14184
0.496	1.14077
0.497	1.13971
0.498	1.13865
0.499	1.13759
0.5	1.13653
0.501	1.13548
0.502	1.13442
0.503	1.13337
0.504	1.13232
0.505	1.13127
0.506	1.13022
0.507	1.12918
0.508	1.12813
0.509	1.12709
0.51	1.12605
0.511	1.12501
0.512	1.12397
0.513	1.12293
0.514	1.12189
0.515	1.12086
0.516	1.11983
0.517	1.1188
0.518	1.11777
0.519	1.11674
0.52	1.11571
0.521	1.11469
0.522	1.11366
0.523	1.11264
0.524	1.11162
0.525	1.1106
0.526	1.10958
0.527	1.10857
0.528	1.10755
0.529	1.10654
0.53	1.10553
0.531	1.10452
0.532	1.10351
0.533	1.1025
0.534	1.10149
0.535	1.10049
0.536	1.09948
0.537	1.09848
0.538	1.09748
0.539	1.09648
0.54	1.09548
0.541	1.09449
0.542	1.09349
0.543	1.0925
0.544	1.09151
0.545	1.09051
0.546	1.08952
0.547	1.08854
0.548	1.08755
0.549	1.08656
0.55	1.08558
0.551	1.08459
0.552	1.08361
0.553	1.08263
0.554	1.08165
0.555	1.08068
0.556	1.0797
0.557	1.07872
0.558	1.07775
0.559	1.07678
0.56	1.0758
0.561	1.07483
0.562	1.07387
0.563	1.0729
0.564	1.07193
0.565	1.07097
0.566	1.07
0.567	1.06904
0.568	1.06808
0.569	1.06712
0.57	1.06616
0.571	1.0652
0.572	1.06424
0.573	1.06329
0.574	1.06234
0.575	1.06138
0.576	1.06043
0.577	1.05948
0.578	1.05853
0.579	1.05758
0.58	1.05664
0.581	1.05569
0.582	1.05474
0.583	1.0538
0.584	1.05286
0.585	1.05192
0.586	1.05098
0.587	1.05004
0.588	1.0491
0.589	1.04816
0.59	1.04723
0.591	1.0463
0.592	1.04536
0.593	1.04443
0.594	1.0435
0.595	1.04257
0.596	1.04164
0.597	1.04071
0.598	1.03979
0.599	1.03886
0.6	1.03794
0.601	1.03701
0.602	1.03609
0.603	1.03517
0.604	1.03425
0.605	1.03333
0.606	1.03241
0.607	1.0315
0.608	1.03058
0.609	1.02967
0.61	1.02875
0.611	1.02784
0.612	1.02693
0.613	1.02602
0.614	1.02511
0.615	1.0242
0.616	1.02329
0.617	1.02239
0.618	1.02148
0.619	1.02058
0.62	1.01967
0.621	1.01877
0.622	1.01787
0.623	1.01697
0.624	1.01607
0.625	1.01517
0.626	1.01427
0.627	1.01338
0.628	1.01248
0.629	1.01159
0.63	1.01069
0.631	1.0098
0.632	1.00891
0.633	1.00802
0.634	1.00713
0.635	1.00624
0.636	1.00535
0.637	1.00446
0.638	1.00358
0.639	1.00269
0.64	1.00181
0.641	1.00092
0.642	1.00004
0.643	0.999161
0.644	0.99828
0.645	0.997401
0.646	0.996522
0.647	0.995644
0.648	0.994767
0.649	0.993891
0.65	0.993016
0.651	0.992141
0.652	0.991268
0.653	0.990395
0.654	0.989524
0.655	0.988653
0.656	0.987783
0.657	0.986914
0.658	0.986046
0.659	0.985178
0.66	0.984312
0.661	0.983446
0.662	0.982581
0.663	0.981717
0.664	0.980854
0.665	0.979991
0.666	0.97913
0.667	0.978269
0.668	0.977409
0.669	0.97655
0.67	0.975692
0.671	0.974834
0.672	0.973978
0.673	0.973122
0.674	0.972267
0.675	0.971412
0.676	0.970559
0.677	0.969706
0.678	0.968854
0.679	0.968003
0.68	0.967153
0.681	0.966303
0.682	0.965454
0.683	0.964606
0.684	0.963759
0.685	0.962912
0.686	0.962067
0.687	0.961222
0.688	0.960377
0.689	0.959534
0.69	0.958691
0.691	0.957849
0.692	0.957007
0.693	0.956167
0.694	0.955327
0.695	0.954488
0.696	0.953649
0.697	0.952812
0.698	0.951975
0.699	0.951138
0.7	0.950303
0.701	0.949468
0.702	0.948634
0.703	0.9478
0.704	0.946967
0.705	0.946135
0.706	0.945304
0.707	0.944473
0.708	0.943643
0.709	0.942814
0.71	0.941985
0.711	0.941157
0.712	0.940329
0.713	0.939503
0.714	0.938677
0.715	0.937851
0.716	0.937027
0.717	0.936203
0.718	0.935379
0.719	0.934556
0.72	0.933734
0.721	0.932913
0.722	0.932092
0.723	0.931272
0.724	0.930452
0.725	0.929633
0.726	0.928815
0.727	0.927997
0.728	0.92718
0.729	0.926364
0.73	0.925548
0.731	0.924732
0.732	0.923918
0.733	0.923104
0.734	0.92229
0.735	0.921477
0.736	0.920665
0.737	0.919854
0.738	0.919042
0.739	0.918232
0.74	0.917422
0.741	0.916613
0.742	0.915804
0.743	0.914996
0.744	0.914188
0.745	0.913381
0.746	0.912575
0.747	0.911769
0.748	0.910963
0.749	0.910159
0.75	0.909354
0.751	0.908551
0.752	0.907748
0.753	0.906945
0.754	0.906143
0.755	0.905342
0.756	0.904541
0.757	0.90374
0.758	0.90294
0.759	0.902141
0.76	0.901342
0.761	0.900544
0.762	0.899746
0.763	0.898949
0.764	0.898152
0.765	0.897356
0.766	0.89656
0.767	0.895764
0.768	0.89497
0.769	0.894176
0.77	0.893382
0.771	0.892589
0.772	0.891796
0.773	0.891004
0.774	0.890212
0.775	0.88942
0.776	0.88863
0.777	0.887839
0.778	0.887049
0.779	0.88626
0.78	0.885471
0.781	0.884683
0.782	0.883895
0.783	0.883107
0.784	0.88232
0.785	0.881534
0.786	0.880747
0.787	0.879962
0.788	0.879177
0.789	0.878392
0.79	0.877607
0.791	0.876824
0.792	0.87604
0.793	0.875257
0.794	0.874475
0.795	0.873692
0.796	0.872911
0.797	0.872129
0.798	0.871349
0.799	0.870568
0.8	0.869788
0.801	0.869009
0.802	0.868229
0.803	0.867451
0.804	0.866672
0.805	0.865894
0.806	0.865117
0.807	0.86434
0.808	0.863563
0.809	0.862787
0.81	0.862011
0.811	0.861235
0.812	0.86046
0.813	0.859685
0.814	0.858911
0.815	0.858137
0.816	0.857363
0.817	0.85659
0.818	0.855817
0.819	0.855045
0.82	0.854273
0.821	0.853501
0.822	0.85273
0.823	0.851959
0.824	0.851188
0.825	0.850418
0.826	0.849648
0.827	0.848878
0.828	0.848109
0.829	0.84734
0.83	0.846572
0.831	0.845804
0.832	0.845036
0.833	0.844268
0.834	0.843501
0.835	0.842734
0.836	0.841968
0.837	0.841202
0.838	0.840436
0.839	0.839671
0.84	0.838906
0.841	0.838141
0.842	0.837376
0.843	0.836612
0.844	0.835848
0.845	0.835085
0.846	0.834322
0.847	0.833559
0.848	0.832796
0.849	0.832034
0.85	0.831272
0.851	0.83051
0.852	0.829749
0.853	0.828988
0.854	0.828227
0.855	0.827467
0.856	0.826706
0.857	0.825947
0.858	0.825187
0.859	0.824428
0.86	0.823669
0.861	0.82291
0.862	0.822151
0.863	0.821393
0.864	0.820635
0.865	0.819878
0.866	0.81912
0.867	0.818363
0.868	0.817606
0.869	0.81685
0.87	0.816094
0.871	0.815338
0.872	0.814582
0.873	0.813826
0.874	0.813071
0.875	0.812316
0.876	0.811561
0.877	0.810807
0.878	0.810052
0.879	0.809298
0.88	0.808545
0.881	0.807791
0.882	0.807038
0.883	0.806285
0.884	0.805532
0.885	0.804779
0.886	0.804027
0.887	0.803275
0.888	0.802523
0.889	0.801771
0.89	0.80102
0.891	0.800269
0.892	0.799518
0.893	0.798767
0.894	0.798016
0.895	0.797266
0.896	0.796516
0.897	0.795766
0.898	0.795016
0.899	0.794267
0.9	0.793517
0.901	0.792768
0.902	0.792019
0.903	0.791271
0.904	0.790522
0.905	0.789774
0.906	0.789026
0.907	0.788278
0.908	0.78753
0.909	0.786783
0.91	0.786035
0.911	0.785288
0.912	0.784541
0.913	0.783794
0.914	0.783048
0.915	0.782301
0.916	0.781555
0.917	0.780809
0.918	0.780063
0.919	0.779317
0.92	0.778571
0.921	0.777826
0.922	0.777081
0.923	0.776336
0.924	0.775591
0.925	0.774846
0.926	0.774101
0.927	0.773357
0.928	0.772612
0.929	0.771868
0.93	0.771124
0.931	0.77038
0.932	0.769637
0.933	0.768893
0.934	0.76815
0.935	0.767406
0.936	0.766663
0.937	0.76592
0.938	0.765177
0.939	0.764435
0.94	0.763692
0.941	0.76295
0.942	0.762207
0.943	0.761465
0.944	0.760723
0.945	0.759981
0.946	0.759239
0.947	0.758498
0.948	0.757756
0.949	0.757014
0.95	0.756273
0.951	0.755532
0.952	0.754791
0.953	0.75405
0.954	0.753309
0.955	0.752568
0.956	0.751827
0.957	0.751087
0.958	0.750346
0.959	0.749606
0.96	0.748866
0.961	0.748126
0.962	0.747385
0.963	0.746645
0.964	0.745906
0.965	0.745166
0.966	0.744426
0.967	0.743686
0.968	0.742947
0.969	0.742207
0.97	0.741468
0.971	0.740729
0.972	0.73999
0.973	0.739251
0.974	0.738512
0.975	0.737773
0.976	0.737034
0.977	0.736295
0.978	0.735556
0.979	0.734818
0.98	0.734079
0.981	0.73334
0.982	0.732602
0.983	0.731864
0.984	0.731125
0.985	0.730387
0.986	0.729649
0.987	0.728911
0.988	0.728173
0.989	0.727435
0.99	0.726697
0.991	0.725959
0.992	0.725221
0.993	0.724483
0.994	0.723745
0.995	0.723007
0.996	0.72227
0.997	0.721532
0.998	0.720794
0.999	0.720057
1	0.719319
