<?xml version="1.0" encoding="utf-8"  standalone="no"?>
<!DOCTYPE svg PUBLIC "-//W3C//DTD SVG 1.1//EN" 
 "http://www.w3.org/Graphics/SVG/1.1/DTD/svg11.dtd">
<svg 
 width="1000" height="700" 
 viewBox="0 0 1000 700"
 xmlns="http://www.w3.org/2000/svg"
 xmlns:xlink="http://www.w3.org/1999/xlink"
>

<title>Gnuplot</title>
<desc>Produced by GNUPLOT 4.6 patchlevel 3 </desc>

<g id="gnuplot_canvas">

<rect x="0" y="0" width="1000" height="700" fill="none"/>
<defs>

	<circle id='gpDot' r='0.5' stroke-width='0.5'/>
	<path id='gpPt0' stroke-width='0.222' stroke='currentColor' d='M-1,0 h2 M0,-1 v2'/>
	<path id='gpPt1' stroke-width='0.222' stroke='currentColor' d='M-1,-1 L1,1 M1,-1 L-1,1'/>
	<path id='gpPt2' stroke-width='0.222' stroke='currentColor' d='M-1,0 L1,0 M0,-1 L0,1 M-1,-1 L1,1 M-1,1 L1,-1'/>
	<rect id='gpPt3' stroke-width='0.222' stroke='currentColor' x='-1' y='-1' width='2' height='2'/>
	<rect id='gpPt4' stroke-width='0.222' stroke='currentColor' fill='currentColor' x='-1' y='-1' width='2' height='2'/>
	<circle id='gpPt5' stroke-width='0.222' stroke='currentColor' cx='0' cy='0' r='1'/>
	<use xlink:href='#gpPt5' id='gpPt6' fill='currentColor' stroke='none'/>
	<path id='gpPt7' stroke-width='0.222' stroke='currentColor' d='M0,-1.33 L-1.33,0.67 L1.33,0.67 z'/>
	<use xlink:href='#gpPt7' id='gpPt8' fill='currentColor' stroke='none'/>
	<use xlink:href='#gpPt7' id='gpPt9' stroke='currentColor' transform='rotate(180)'/>
	<use xlink:href='#gpPt9' id='gpPt10' fill='currentColor' stroke='none'/>
	<use xlink:href='#gpPt3' id='gpPt11' stroke='currentColor' transform='rotate(45)'/>
	<use xlink:href='#gpPt11' id='gpPt12' fill='currentColor' stroke='none'/>
</defs>
<g style="fill:none; color:white; stroke:currentColor; stroke-width:1.00; stroke-linecap:butt; stroke-linejoin:miter">
</g>
<g style="fill:none; color:black; stroke:currentColor; stroke-width:1.00; stroke-linecap:butt; stroke-linejoin:miter">
</g>
<g style="fill:none; color:gray; stroke:currentColor; stroke-width:1.00; stroke-linecap:butt; stroke-linejoin:miter">
	<path stroke='gray' stroke-dasharray=' 2,4' class="gridline"  d='M71.9,642.4 L975.0,642.4  h0.01'/></g>
<g style="fill:none; color:black; stroke:currentColor; stroke-width:1.00; stroke-linecap:butt; stroke-linejoin:miter">
	<path stroke='black'  d='M71.9,642.4 L80.9,642.4 M975.0,642.4 L966.0,642.4  h0.01'/>	<g transform="translate(63.6,646.9)" style="stroke:none; fill:black; font-family:Arial; font-size:12.00pt; text-anchor:end">
		<text> 0</text>
	</g>
</g>
<g style="fill:none; color:gray; stroke:currentColor; stroke-width:1.00; stroke-linecap:butt; stroke-linejoin:miter">
	<path stroke='gray' stroke-dasharray=' 2,4' class="gridline"  d='M71.9,524.7 L975.0,524.7  h0.01'/></g>
<g style="fill:none; color:black; stroke:currentColor; stroke-width:1.00; stroke-linecap:butt; stroke-linejoin:miter">
	<path stroke='black'  d='M71.9,524.7 L80.9,524.7 M975.0,524.7 L966.0,524.7  h0.01'/>	<g transform="translate(63.6,529.2)" style="stroke:none; fill:black; font-family:Arial; font-size:12.00pt; text-anchor:end">
		<text> 0.2</text>
	</g>
</g>
<g style="fill:none; color:gray; stroke:currentColor; stroke-width:1.00; stroke-linecap:butt; stroke-linejoin:miter">
	<path stroke='gray' stroke-dasharray=' 2,4' class="gridline"  d='M71.9,407.1 L975.0,407.1  h0.01'/></g>
<g style="fill:none; color:black; stroke:currentColor; stroke-width:1.00; stroke-linecap:butt; stroke-linejoin:miter">
	<path stroke='black'  d='M71.9,407.1 L80.9,407.1 M975.0,407.1 L966.0,407.1  h0.01'/>	<g transform="translate(63.6,411.6)" style="stroke:none; fill:black; font-family:Arial; font-size:12.00pt; text-anchor:end">
		<text> 0.4</text>
	</g>
</g>
<g style="fill:none; color:gray; stroke:currentColor; stroke-width:1.00; stroke-linecap:butt; stroke-linejoin:miter">
	<path stroke='gray' stroke-dasharray=' 2,4' class="gridline"  d='M71.9,289.4 L975.0,289.4  h0.01'/></g>
<g style="fill:none; color:black; stroke:currentColor; stroke-width:1.00; stroke-linecap:butt; stroke-linejoin:miter">
	<path stroke='black'  d='M71.9,289.4 L80.9,289.4 M975.0,289.4 L966.0,289.4  h0.01'/>	<g transform="translate(63.6,293.9)" style="stroke:none; fill:black; font-family:Arial; font-size:12.00pt; text-anchor:end">
		<text> 0.6</text>
	</g>
</g>
<g style="fill:none; color:gray; stroke:currentColor; stroke-width:1.00; stroke-linecap:butt; stroke-linejoin:miter">
	<path stroke='gray' stroke-dasharray=' 2,4' class="gridline"  d='M71.9,171.8 L975.0,171.8  h0.01'/></g>
<g style="fill:none; color:black; stroke:currentColor; stroke-width:1.00; stroke-linecap:butt; stroke-linejoin:miter">
	<path stroke='black'  d='M71.9,171.8 L80.9,171.8 M975.0,171.8 L966.0,171.8  h0.01'/>	<g transform="translate(63.6,176.3)" style="stroke:none; fill:black; font-family:Arial; font-size:12.00pt; text-anchor:end">
		<text> 0.8</text>
	</g>
</g>
<g style="fill:none; color:gray; stroke:currentColor; stroke-width:1.00; stroke-linecap:butt; stroke-linejoin:miter">
	<path stroke='gray' stroke-dasharray=' 2,4' class="gridline"  d='M71.9,54.1 L975.0,54.1  h0.01'/></g>
<g style="fill:none; color:black; stroke:currentColor; stroke-width:1.00; stroke-linecap:butt; stroke-linejoin:miter">
	<path stroke='black'  d='M71.9,54.1 L80.9,54.1 M975.0,54.1 L966.0,54.1  h0.01'/>	<g transform="translate(63.6,58.6)" style="stroke:none; fill:black; font-family:Arial; font-size:12.00pt; text-anchor:end">
		<text> 1</text>
	</g>
</g>
<g style="fill:none; color:gray; stroke:currentColor; stroke-width:1.00; stroke-linecap:butt; stroke-linejoin:miter">
	<path stroke='gray' stroke-dasharray=' 2,4' class="gridline"  d='M71.9,642.4 L71.9,54.1  h0.01'/></g>
<g style="fill:none; color:black; stroke:currentColor; stroke-width:1.00; stroke-linecap:butt; stroke-linejoin:miter">
	<path stroke='black'  d='M71.9,642.4 L71.9,633.4 M71.9,54.1 L71.9,63.1  h0.01'/>	<g transform="translate(71.9,664.9)" style="stroke:none; fill:black; font-family:Arial; font-size:12.00pt; text-anchor:middle">
		<text> 0</text>
	</g>
</g>
<g style="fill:none; color:gray; stroke:currentColor; stroke-width:1.00; stroke-linecap:butt; stroke-linejoin:miter">
	<path stroke='gray' stroke-dasharray=' 2,4' class="gridline"  d='M200.9,642.4 L200.9,54.1  h0.01'/></g>
<g style="fill:none; color:black; stroke:currentColor; stroke-width:1.00; stroke-linecap:butt; stroke-linejoin:miter">
	<path stroke='black'  d='M200.9,642.4 L200.9,633.4 M200.9,54.1 L200.9,63.1  h0.01'/>	<g transform="translate(200.9,664.9)" style="stroke:none; fill:black; font-family:Arial; font-size:12.00pt; text-anchor:middle">
		<text> 0.5</text>
	</g>
</g>
<g style="fill:none; color:gray; stroke:currentColor; stroke-width:1.00; stroke-linecap:butt; stroke-linejoin:miter">
	<path stroke='gray' stroke-dasharray=' 2,4' class="gridline"  d='M329.9,642.4 L329.9,54.1  h0.01'/></g>
<g style="fill:none; color:black; stroke:currentColor; stroke-width:1.00; stroke-linecap:butt; stroke-linejoin:miter">
	<path stroke='black'  d='M329.9,642.4 L329.9,633.4 M329.9,54.1 L329.9,63.1  h0.01'/>	<g transform="translate(329.9,664.9)" style="stroke:none; fill:black; font-family:Arial; font-size:12.00pt; text-anchor:middle">
		<text> 1</text>
	</g>
</g>
<g style="fill:none; color:gray; stroke:currentColor; stroke-width:1.00; stroke-linecap:butt; stroke-linejoin:miter">
	<path stroke='gray' stroke-dasharray=' 2,4' class="gridline"  d='M458.9,642.4 L458.9,54.1  h0.01'/></g>
<g style="fill:none; color:black; stroke:currentColor; stroke-width:1.00; stroke-linecap:butt; stroke-linejoin:miter">
	<path stroke='black'  d='M458.9,642.4 L458.9,633.4 M458.9,54.1 L458.9,63.1  h0.01'/>	<g transform="translate(458.9,664.9)" style="stroke:none; fill:black; font-family:Arial; font-size:12.00pt; text-anchor:middle">
		<text> 1.5</text>
	</g>
</g>
<g style="fill:none; color:gray; stroke:currentColor; stroke-width:1.00; stroke-linecap:butt; stroke-linejoin:miter">
	<path stroke='gray' stroke-dasharray=' 2,4' class="gridline"  d='M588.0,642.4 L588.0,54.1  h0.01'/></g>
<g style="fill:none; color:black; stroke:currentColor; stroke-width:1.00; stroke-linecap:butt; stroke-linejoin:miter">
	<path stroke='black'  d='M588.0,642.4 L588.0,633.4 M588.0,54.1 L588.0,63.1  h0.01'/>	<g transform="translate(588.0,664.9)" style="stroke:none; fill:black; font-family:Arial; font-size:12.00pt; text-anchor:middle">
		<text> 2</text>
	</g>
</g>
<g style="fill:none; color:gray; stroke:currentColor; stroke-width:1.00; stroke-linecap:butt; stroke-linejoin:miter">
	<path stroke='gray' stroke-dasharray=' 2,4' class="gridline"  d='M717.0,642.4 L717.0,117.1 M717.0,63.1 L717.0,54.1  h0.01'/></g>
<g style="fill:none; color:black; stroke:currentColor; stroke-width:1.00; stroke-linecap:butt; stroke-linejoin:miter">
	<path stroke='black'  d='M717.0,642.4 L717.0,633.4 M717.0,54.1 L717.0,63.1  h0.01'/>	<g transform="translate(717.0,664.9)" style="stroke:none; fill:black; font-family:Arial; font-size:12.00pt; text-anchor:middle">
		<text> 2.5</text>
	</g>
</g>
<g style="fill:none; color:gray; stroke:currentColor; stroke-width:1.00; stroke-linecap:butt; stroke-linejoin:miter">
	<path stroke='gray' stroke-dasharray=' 2,4' class="gridline"  d='M846.0,642.4 L846.0,117.1 M846.0,63.1 L846.0,54.1  h0.01'/></g>
<g style="fill:none; color:black; stroke:currentColor; stroke-width:1.00; stroke-linecap:butt; stroke-linejoin:miter">
	<path stroke='black'  d='M846.0,642.4 L846.0,633.4 M846.0,54.1 L846.0,63.1  h0.01'/>	<g transform="translate(846.0,664.9)" style="stroke:none; fill:black; font-family:Arial; font-size:12.00pt; text-anchor:middle">
		<text> 3</text>
	</g>
</g>
<g style="fill:none; color:gray; stroke:currentColor; stroke-width:1.00; stroke-linecap:butt; stroke-linejoin:miter">
	<path stroke='gray' stroke-dasharray=' 2,4' class="gridline"  d='M975.0,642.4 L975.0,54.1  h0.01'/></g>
<g style="fill:none; color:black; stroke:currentColor; stroke-width:1.00; stroke-linecap:butt; stroke-linejoin:miter">
	<path stroke='black'  d='M975.0,642.4 L975.0,633.4 M975.0,54.1 L975.0,63.1  h0.01'/>	<g transform="translate(975.0,664.9)" style="stroke:none; fill:black; font-family:Arial; font-size:12.00pt; text-anchor:middle">
		<text> 3.5</text>
	</g>
	<path stroke='black'  d='M71.9,54.1 L71.9,642.4 L975.0,642.4 L975.0,54.1 L71.9,54.1 Z  h0.01'/>	<g transform="translate(17.6,348.3) rotate(270)" style="stroke:none; fill:black; font-family:Arial; font-size:12.00pt; text-anchor:middle">
		<text>Funkcijas vērtība u(x,T=1)</text>
	</g>
	<g transform="translate(523.4,691.9)" style="stroke:none; fill:black; font-family:Arial; font-size:12.00pt; text-anchor:middle">
		<text>Telpas koordināta x</text>
	</g>
	<g transform="translate(523.4,31.6)" style="stroke:none; fill:black; font-family:Arial; font-size:12.00pt; text-anchor:middle">
		<text>Skaitliskā atrisinājuma vērtības laika slānī t = T = 1</text>
	</g>
	<path stroke='black'  d='M609.1,117.1 L609.1,63.1 L966.7,63.1 L966.7,117.1 L609.1,117.1 Z  h0.01'/></g>
	<g id="gnuplot_plot_1" ><title>gnuplot_plot_1</title>
<g style="fill:none; color:white; stroke:black; stroke-width:2.00; stroke-linecap:butt; stroke-linejoin:miter">
</g>
<g style="fill:none; color:green; stroke:currentColor; stroke-width:2.00; stroke-linecap:butt; stroke-linejoin:miter">
	<use xlink:href='#gpPt1' transform='translate(71.9,226.7) scale(4.50)' color='rgb(  0, 255,   0)'/>
	<use xlink:href='#gpPt1' transform='translate(112.4,177.9) scale(4.50)' color='rgb(  0, 255,   0)'/>
	<use xlink:href='#gpPt1' transform='translate(153.0,145.4) scale(4.50)' color='rgb(  0, 255,   0)'/>
	<use xlink:href='#gpPt1' transform='translate(193.5,126.5) scale(4.50)' color='rgb(  0, 255,   0)'/>
	<use xlink:href='#gpPt1' transform='translate(234.0,118.8) scale(4.50)' color='rgb(  0, 255,   0)'/>
	<use xlink:href='#gpPt1' transform='translate(274.6,120.2) scale(4.50)' color='rgb(  0, 255,   0)'/>
	<use xlink:href='#gpPt1' transform='translate(315.1,129.1) scale(4.50)' color='rgb(  0, 255,   0)'/>
	<use xlink:href='#gpPt1' transform='translate(355.6,144.0) scale(4.50)' color='rgb(  0, 255,   0)'/>
	<use xlink:href='#gpPt1' transform='translate(396.1,164.0) scale(4.50)' color='rgb(  0, 255,   0)'/>
	<use xlink:href='#gpPt1' transform='translate(436.7,188.0) scale(4.50)' color='rgb(  0, 255,   0)'/>
	<use xlink:href='#gpPt1' transform='translate(477.2,215.6) scale(4.50)' color='rgb(  0, 255,   0)'/>
	<use xlink:href='#gpPt1' transform='translate(517.7,246.2) scale(4.50)' color='rgb(  0, 255,   0)'/>
	<use xlink:href='#gpPt1' transform='translate(558.3,279.4) scale(4.50)' color='rgb(  0, 255,   0)'/>
	<use xlink:href='#gpPt1' transform='translate(598.8,314.8) scale(4.50)' color='rgb(  0, 255,   0)'/>
	<use xlink:href='#gpPt1' transform='translate(639.3,352.2) scale(4.50)' color='rgb(  0, 255,   0)'/>
	<use xlink:href='#gpPt1' transform='translate(679.9,391.0) scale(4.50)' color='rgb(  0, 255,   0)'/>
	<use xlink:href='#gpPt1' transform='translate(720.4,431.0) scale(4.50)' color='rgb(  0, 255,   0)'/>
	<use xlink:href='#gpPt1' transform='translate(760.9,471.6) scale(4.50)' color='rgb(  0, 255,   0)'/>
	<use xlink:href='#gpPt1' transform='translate(801.5,512.3) scale(4.50)' color='rgb(  0, 255,   0)'/>
	<use xlink:href='#gpPt1' transform='translate(842.0,552.5) scale(4.50)' color='rgb(  0, 255,   0)'/>
	<use xlink:href='#gpPt1' transform='translate(882.5,591.5) scale(4.50)' color='rgb(  0, 255,   0)'/>
</g>
	</g>
	<g id="gnuplot_plot_2" ><title>gnuplot_plot_2</title>
<g style="fill:none; color:red; stroke:currentColor; stroke-width:2.00; stroke-linecap:butt; stroke-linejoin:miter">
	<use xlink:href='#gpPt0' transform='translate(71.9,224.0) scale(4.50)' color='rgb(255,   0,   0)'/>
	<use xlink:href='#gpPt0' transform='translate(112.4,175.3) scale(4.50)' color='rgb(255,   0,   0)'/>
	<use xlink:href='#gpPt0' transform='translate(153.0,143.0) scale(4.50)' color='rgb(255,   0,   0)'/>
	<use xlink:href='#gpPt0' transform='translate(193.5,124.4) scale(4.50)' color='rgb(255,   0,   0)'/>
	<use xlink:href='#gpPt0' transform='translate(234.0,117.1) scale(4.50)' color='rgb(255,   0,   0)'/>
	<use xlink:href='#gpPt0' transform='translate(274.6,119.0) scale(4.50)' color='rgb(255,   0,   0)'/>
	<use xlink:href='#gpPt0' transform='translate(315.1,128.4) scale(4.50)' color='rgb(255,   0,   0)'/>
	<use xlink:href='#gpPt0' transform='translate(355.6,143.9) scale(4.50)' color='rgb(255,   0,   0)'/>
	<use xlink:href='#gpPt0' transform='translate(396.1,164.5) scale(4.50)' color='rgb(255,   0,   0)'/>
	<use xlink:href='#gpPt0' transform='translate(436.7,189.2) scale(4.50)' color='rgb(255,   0,   0)'/>
	<use xlink:href='#gpPt0' transform='translate(477.2,217.3) scale(4.50)' color='rgb(255,   0,   0)'/>
	<use xlink:href='#gpPt0' transform='translate(517.7,248.5) scale(4.50)' color='rgb(255,   0,   0)'/>
	<use xlink:href='#gpPt0' transform='translate(558.3,282.2) scale(4.50)' color='rgb(255,   0,   0)'/>
	<use xlink:href='#gpPt0' transform='translate(598.8,318.1) scale(4.50)' color='rgb(255,   0,   0)'/>
	<use xlink:href='#gpPt0' transform='translate(639.3,355.8) scale(4.50)' color='rgb(255,   0,   0)'/>
	<use xlink:href='#gpPt0' transform='translate(679.9,395.0) scale(4.50)' color='rgb(255,   0,   0)'/>
	<use xlink:href='#gpPt0' transform='translate(720.4,435.2) scale(4.50)' color='rgb(255,   0,   0)'/>
	<use xlink:href='#gpPt0' transform='translate(760.9,476.1) scale(4.50)' color='rgb(255,   0,   0)'/>
	<use xlink:href='#gpPt0' transform='translate(801.5,516.9) scale(4.50)' color='rgb(255,   0,   0)'/>
	<use xlink:href='#gpPt0' transform='translate(842.0,557.2) scale(4.50)' color='rgb(255,   0,   0)'/>
	<use xlink:href='#gpPt0' transform='translate(882.5,596.1) scale(4.50)' color='rgb(255,   0,   0)'/>
</g>
	</g>
	<g id="gnuplot_plot_3" ><title>gnuplot_plot_3</title>
<g style="fill:none; color:blue; stroke:currentColor; stroke-width:2.00; stroke-linecap:butt; stroke-linejoin:miter">
	<use xlink:href='#gpPt2' transform='translate(71.9,222.8) scale(4.50)' color='rgb(  0,   0, 255)'/>
	<use xlink:href='#gpPt2' transform='translate(112.4,174.1) scale(4.50)' color='rgb(  0,   0, 255)'/>
	<use xlink:href='#gpPt2' transform='translate(153.0,141.9) scale(4.50)' color='rgb(  0,   0, 255)'/>
	<use xlink:href='#gpPt2' transform='translate(193.5,123.4) scale(4.50)' color='rgb(  0,   0, 255)'/>
	<use xlink:href='#gpPt2' transform='translate(234.0,116.3) scale(4.50)' color='rgb(  0,   0, 255)'/>
	<use xlink:href='#gpPt2' transform='translate(274.6,118.4) scale(4.50)' color='rgb(  0,   0, 255)'/>
	<use xlink:href='#gpPt2' transform='translate(315.1,128.1) scale(4.50)' color='rgb(  0,   0, 255)'/>
	<use xlink:href='#gpPt2' transform='translate(355.6,143.9) scale(4.50)' color='rgb(  0,   0, 255)'/>
	<use xlink:href='#gpPt2' transform='translate(396.1,164.7) scale(4.50)' color='rgb(  0,   0, 255)'/>
	<use xlink:href='#gpPt2' transform='translate(436.7,189.6) scale(4.50)' color='rgb(  0,   0, 255)'/>
	<use xlink:href='#gpPt2' transform='translate(477.2,218.1) scale(4.50)' color='rgb(  0,   0, 255)'/>
	<use xlink:href='#gpPt2' transform='translate(517.7,249.5) scale(4.50)' color='rgb(  0,   0, 255)'/>
	<use xlink:href='#gpPt2' transform='translate(558.3,283.4) scale(4.50)' color='rgb(  0,   0, 255)'/>
	<use xlink:href='#gpPt2' transform='translate(598.8,319.5) scale(4.50)' color='rgb(  0,   0, 255)'/>
	<use xlink:href='#gpPt2' transform='translate(639.3,357.4) scale(4.50)' color='rgb(  0,   0, 255)'/>
	<use xlink:href='#gpPt2' transform='translate(679.9,396.7) scale(4.50)' color='rgb(  0,   0, 255)'/>
	<use xlink:href='#gpPt2' transform='translate(720.4,437.1) scale(4.50)' color='rgb(  0,   0, 255)'/>
	<use xlink:href='#gpPt2' transform='translate(760.9,478.0) scale(4.50)' color='rgb(  0,   0, 255)'/>
	<use xlink:href='#gpPt2' transform='translate(801.5,518.9) scale(4.50)' color='rgb(  0,   0, 255)'/>
	<use xlink:href='#gpPt2' transform='translate(842.0,559.2) scale(4.50)' color='rgb(  0,   0, 255)'/>
	<use xlink:href='#gpPt2' transform='translate(882.5,598.2) scale(4.50)' color='rgb(  0,   0, 255)'/>
</g>
	</g>
	<g style = 'stroke:none; shape-rendering:crispEdges'>
		<polygon fill = 'white' points = '609.1,117.1 966.7,117.1 966.7,63.1 609.1,63.1 '/>
	</g>
<g style="fill:none; color:white; stroke:white; stroke-width:1.00; stroke-linecap:butt; stroke-linejoin:miter">
</g>
<g style="fill:none; color:black; stroke:currentColor; stroke-width:1.00; stroke-linecap:butt; stroke-linejoin:miter">
	<path stroke='black'  d='M609.1,117.1 L609.1,63.1 L966.7,63.1 L966.7,117.1 L609.1,117.1 Z  h0.01'/></g>
	<g id="gnuplot_plot_1" ><title>gnuplot_plot_1</title>
<g style="fill:none; color:white; stroke:black; stroke-width:2.00; stroke-linecap:butt; stroke-linejoin:miter">
</g>
<g style="fill:none; color:green; stroke:currentColor; stroke-width:2.00; stroke-linecap:butt; stroke-linejoin:miter">
	<g transform="translate(907.9,112.6)" style="stroke:none; fill:black; font-family:Arial; font-size:12.00pt; text-anchor:end">
		<text>Slēptā shēma h=pi/20, tau=1/100</text>
	</g>
	<use xlink:href='#gpPt1' transform='translate(937.3,108.1) scale(4.50)' color='rgb(  0, 255,   0)'/>
</g>
	</g>
	<g id="gnuplot_plot_2" ><title>gnuplot_plot_2</title>
<g style="fill:none; color:red; stroke:currentColor; stroke-width:2.00; stroke-linecap:butt; stroke-linejoin:miter">
	<g transform="translate(907.9,94.6)" style="stroke:none; fill:black; font-family:Arial; font-size:12.00pt; text-anchor:end">
		<text>Slēptā shēma h=pi/20, tau=1/320</text>
	</g>
	<use xlink:href='#gpPt0' transform='translate(937.3,90.1) scale(4.50)' color='rgb(255,   0,   0)'/>
</g>
	</g>
	<g id="gnuplot_plot_3" ><title>gnuplot_plot_3</title>
<g style="fill:none; color:blue; stroke:currentColor; stroke-width:2.00; stroke-linecap:butt; stroke-linejoin:miter">
	<g transform="translate(907.9,76.6)" style="stroke:none; fill:black; font-family:Arial; font-size:12.00pt; text-anchor:end">
		<text>Slēptā shēma h=pi/20, tau=1/10000</text>
	</g>
	<use xlink:href='#gpPt2' transform='translate(937.3,72.1) scale(4.50)' color='rgb(  0,   0, 255)'/>
</g>
	</g>
<g style="fill:none; color:white; stroke:rgb(  0,   0, 255); stroke-width:1.00; stroke-linecap:butt; stroke-linejoin:miter">
</g>
<g style="fill:none; color:black; stroke:currentColor; stroke-width:1.00; stroke-linecap:butt; stroke-linejoin:miter">
	<path stroke='black'  d='M71.9,54.1 L71.9,642.4 L975.0,642.4 L975.0,54.1 L71.9,54.1 Z  h0.01'/></g>
</g>
</svg>

