0	0.713376
0.15708	0.796099
0.314159	0.850823
0.471239	0.882198
0.628319	0.894318
0.785398	0.890695
0.942478	0.874258
1.09956	0.847394
1.25664	0.811999
1.41372	0.769552
1.5708	0.721192
1.72788	0.667809
1.88496	0.610121
2.04204	0.548755
2.19911	0.484313
2.35619	0.417429
2.51327	0.348811
2.67035	0.279269
2.82743	0.20973
2.98451	0.14124
3.14159	0.0749489
