<?xml version="1.0" encoding="utf-8"  standalone="no"?>
<!DOCTYPE svg PUBLIC "-//W3C//DTD SVG 1.1//EN" 
 "http://www.w3.org/Graphics/SVG/1.1/DTD/svg11.dtd">
<svg 
 width="1000" height="700" 
 viewBox="0 0 1000 700"
 xmlns="http://www.w3.org/2000/svg"
 xmlns:xlink="http://www.w3.org/1999/xlink"
>

<title>Gnuplot</title>
<desc>Produced by GNUPLOT 4.6 patchlevel 3 </desc>

<g id="gnuplot_canvas">

<rect x="0" y="0" width="1000" height="700" fill="none"/>
<defs>

	<circle id='gpDot' r='0.5' stroke-width='0.5'/>
	<path id='gpPt0' stroke-width='0.222' stroke='currentColor' d='M-1,0 h2 M0,-1 v2'/>
	<path id='gpPt1' stroke-width='0.222' stroke='currentColor' d='M-1,-1 L1,1 M1,-1 L-1,1'/>
	<path id='gpPt2' stroke-width='0.222' stroke='currentColor' d='M-1,0 L1,0 M0,-1 L0,1 M-1,-1 L1,1 M-1,1 L1,-1'/>
	<rect id='gpPt3' stroke-width='0.222' stroke='currentColor' x='-1' y='-1' width='2' height='2'/>
	<rect id='gpPt4' stroke-width='0.222' stroke='currentColor' fill='currentColor' x='-1' y='-1' width='2' height='2'/>
	<circle id='gpPt5' stroke-width='0.222' stroke='currentColor' cx='0' cy='0' r='1'/>
	<use xlink:href='#gpPt5' id='gpPt6' fill='currentColor' stroke='none'/>
	<path id='gpPt7' stroke-width='0.222' stroke='currentColor' d='M0,-1.33 L-1.33,0.67 L1.33,0.67 z'/>
	<use xlink:href='#gpPt7' id='gpPt8' fill='currentColor' stroke='none'/>
	<use xlink:href='#gpPt7' id='gpPt9' stroke='currentColor' transform='rotate(180)'/>
	<use xlink:href='#gpPt9' id='gpPt10' fill='currentColor' stroke='none'/>
	<use xlink:href='#gpPt3' id='gpPt11' stroke='currentColor' transform='rotate(45)'/>
	<use xlink:href='#gpPt11' id='gpPt12' fill='currentColor' stroke='none'/>
</defs>
<g style="fill:none; color:white; stroke:currentColor; stroke-width:1.00; stroke-linecap:butt; stroke-linejoin:miter">
</g>
<g style="fill:none; color:black; stroke:currentColor; stroke-width:1.00; stroke-linecap:butt; stroke-linejoin:miter">
	<path stroke='black'  d='M88.5,642.4 L97.5,642.4 M975.0,642.4 L966.0,642.4  h0.01'/>	<g transform="translate(80.2,646.9)" style="stroke:none; fill:black; font-family:Arial; font-size:12.00pt; text-anchor:end">
		<text> 0.714</text>
	</g>
	<path stroke='black'  d='M88.5,547.3 L97.5,547.3 M975.0,547.3 L966.0,547.3  h0.01'/>	<g transform="translate(80.2,551.8)" style="stroke:none; fill:black; font-family:Arial; font-size:12.00pt; text-anchor:end">
		<text> 0.715</text>
	</g>
	<path stroke='black'  d='M88.5,452.3 L97.5,452.3 M975.0,452.3 L966.0,452.3  h0.01'/>	<g transform="translate(80.2,456.8)" style="stroke:none; fill:black; font-family:Arial; font-size:12.00pt; text-anchor:end">
		<text> 0.716</text>
	</g>
	<path stroke='black'  d='M88.5,357.2 L97.5,357.2 M975.0,357.2 L966.0,357.2  h0.01'/>	<g transform="translate(80.2,361.7)" style="stroke:none; fill:black; font-family:Arial; font-size:12.00pt; text-anchor:end">
		<text> 0.717</text>
	</g>
	<path stroke='black'  d='M88.5,262.2 L97.5,262.2 M975.0,262.2 L966.0,262.2  h0.01'/>	<g transform="translate(80.2,266.7)" style="stroke:none; fill:black; font-family:Arial; font-size:12.00pt; text-anchor:end">
		<text> 0.718</text>
	</g>
	<path stroke='black'  d='M88.5,167.1 L97.5,167.1 M975.0,167.1 L966.0,167.1  h0.01'/>	<g transform="translate(80.2,171.6)" style="stroke:none; fill:black; font-family:Arial; font-size:12.00pt; text-anchor:end">
		<text> 0.719</text>
	</g>
	<path stroke='black'  d='M88.5,72.1 L97.5,72.1 M975.0,72.1 L966.0,72.1  h0.01'/>	<g transform="translate(80.2,76.6)" style="stroke:none; fill:black; font-family:Arial; font-size:12.00pt; text-anchor:end">
		<text> 0.72</text>
	</g>
	<path stroke='black'  d='M88.5,642.4 L88.5,633.4 M88.5,72.1 L88.5,81.1  h0.01'/>	<g transform="translate(88.5,664.9)" style="stroke:none; fill:black; font-family:Arial; font-size:12.00pt; text-anchor:middle">
		<text> 0.03</text>
	</g>
	<path stroke='black'  d='M177.2,642.4 L177.2,633.4 M177.2,72.1 L177.2,81.1  h0.01'/>	<g transform="translate(177.2,664.9)" style="stroke:none; fill:black; font-family:Arial; font-size:12.00pt; text-anchor:middle">
		<text> 0.04</text>
	</g>
	<path stroke='black'  d='M265.8,642.4 L265.8,633.4 M265.8,72.1 L265.8,81.1  h0.01'/>	<g transform="translate(265.8,664.9)" style="stroke:none; fill:black; font-family:Arial; font-size:12.00pt; text-anchor:middle">
		<text> 0.05</text>
	</g>
	<path stroke='black'  d='M354.5,642.4 L354.5,633.4 M354.5,72.1 L354.5,81.1  h0.01'/>	<g transform="translate(354.5,664.9)" style="stroke:none; fill:black; font-family:Arial; font-size:12.00pt; text-anchor:middle">
		<text> 0.06</text>
	</g>
	<path stroke='black'  d='M443.1,642.4 L443.1,633.4 M443.1,72.1 L443.1,81.1  h0.01'/>	<g transform="translate(443.1,664.9)" style="stroke:none; fill:black; font-family:Arial; font-size:12.00pt; text-anchor:middle">
		<text> 0.07</text>
	</g>
	<path stroke='black'  d='M531.8,642.4 L531.8,633.4 M531.8,72.1 L531.8,81.1  h0.01'/>	<g transform="translate(531.8,664.9)" style="stroke:none; fill:black; font-family:Arial; font-size:12.00pt; text-anchor:middle">
		<text> 0.08</text>
	</g>
	<path stroke='black'  d='M620.4,642.4 L620.4,633.4 M620.4,72.1 L620.4,81.1  h0.01'/>	<g transform="translate(620.4,664.9)" style="stroke:none; fill:black; font-family:Arial; font-size:12.00pt; text-anchor:middle">
		<text> 0.09</text>
	</g>
	<path stroke='black'  d='M709.0,642.4 L709.0,633.4 M709.0,72.1 L709.0,81.1  h0.01'/>	<g transform="translate(709.0,664.9)" style="stroke:none; fill:black; font-family:Arial; font-size:12.00pt; text-anchor:middle">
		<text> 0.1</text>
	</g>
	<path stroke='black'  d='M797.7,642.4 L797.7,633.4 M797.7,72.1 L797.7,81.1  h0.01'/>	<g transform="translate(797.7,664.9)" style="stroke:none; fill:black; font-family:Arial; font-size:12.00pt; text-anchor:middle">
		<text> 0.11</text>
	</g>
	<path stroke='black'  d='M886.3,642.4 L886.3,633.4 M886.3,72.1 L886.3,81.1  h0.01'/>	<g transform="translate(886.3,664.9)" style="stroke:none; fill:black; font-family:Arial; font-size:12.00pt; text-anchor:middle">
		<text> 0.12</text>
	</g>
	<path stroke='black'  d='M975.0,642.4 L975.0,633.4 M975.0,72.1 L975.0,81.1  h0.01'/>	<g transform="translate(975.0,664.9)" style="stroke:none; fill:black; font-family:Arial; font-size:12.00pt; text-anchor:middle">
		<text> 0.13</text>
	</g>
	<path stroke='black'  d='M88.5,72.1 L88.5,642.4 L975.0,642.4 L975.0,72.1 L88.5,72.1 Z  h0.01'/>	<g transform="translate(17.6,357.3) rotate(270)" style="stroke:none; fill:black; font-family:Arial; font-size:12.00pt; text-anchor:middle">
		<text>Funkcijas vērtība u(pi/2, 1)</text>
	</g>
	<g transform="translate(531.7,691.9)" style="stroke:none; fill:black; font-family:Arial; font-size:12.00pt; text-anchor:middle">
		<text>Laika solis tau</text>
	</g>
	<g transform="translate(531.7,31.6)" style="stroke:none; fill:black; font-family:Arial; font-size:12.00pt; text-anchor:middle">
		<text>Kranka-Nikolsona shēmas aprēķinātās vērtības u(pi/2,T=1) atkarībā no laika soļa platuma</text>
	</g>
	<g transform="translate(531.7,49.6)" style="stroke:none; fill:black; font-family:Arial; font-size:12.00pt; text-anchor:middle">
		<text>h=pi/10</text>
	</g>
	<g transform="translate(443.1,456.8)" style="stroke:none; fill:black; font-family:Arial; font-size:12.00pt; text-anchor:start">
		<text>Piedzītā formula:</text>
	</g>
	<g transform="translate(443.1,474.8)" style="stroke:none; fill:black; font-family:Arial; font-size:12.00pt; text-anchor:start">
		<text> psi(tau) = 0.71932 + -0.288 * tau^1.997</text>
	</g>
	<path stroke='black'  d='M96.8,117.1 L96.8,81.1 L412.9,81.1 L412.9,117.1 L96.8,117.1 Z  h0.01'/></g>
	<g id="gnuplot_plot_1" ><title>gnuplot_plot_1</title>
<g style="fill:none; color:red; stroke:currentColor; stroke-width:1.00; stroke-linecap:butt; stroke-linejoin:miter">
	<use xlink:href='#gpPt0' transform='translate(930.7,567.5) scale(4.50)' color='red'/>
	<use xlink:href='#gpPt0' transform='translate(807.5,477.3) scale(4.50)' color='red'/>
	<use xlink:href='#gpPt0' transform='translate(709.1,412.7) scale(4.50)' color='red'/>
	<use xlink:href='#gpPt0' transform='translate(628.5,364.9) scale(4.50)' color='red'/>
	<use xlink:href='#gpPt0' transform='translate(561.3,328.4) scale(4.50)' color='red'/>
	<use xlink:href='#gpPt0' transform='translate(504.5,300.1) scale(4.50)' color='red'/>
	<use xlink:href='#gpPt0' transform='translate(455.8,277.6) scale(4.50)' color='red'/>
	<use xlink:href='#gpPt0' transform='translate(413.6,259.4) scale(4.50)' color='red'/>
	<use xlink:href='#gpPt0' transform='translate(376.6,244.6) scale(4.50)' color='red'/>
	<use xlink:href='#gpPt0' transform='translate(344.0,232.3) scale(4.50)' color='red'/>
	<use xlink:href='#gpPt0' transform='translate(315.1,222.0) scale(4.50)' color='red'/>
	<use xlink:href='#gpPt0' transform='translate(289.1,213.2) scale(4.50)' color='red'/>
	<use xlink:href='#gpPt0' transform='translate(265.8,205.8) scale(4.50)' color='red'/>
	<use xlink:href='#gpPt0' transform='translate(244.7,199.4) scale(4.50)' color='red'/>
	<use xlink:href='#gpPt0' transform='translate(225.5,193.9) scale(4.50)' color='red'/>
	<use xlink:href='#gpPt0' transform='translate(208.0,188.9) scale(4.50)' color='red'/>
	<use xlink:href='#gpPt0' transform='translate(191.9,184.7) scale(4.50)' color='red'/>
	<use xlink:href='#gpPt0' transform='translate(177.2,180.9) scale(4.50)' color='red'/>
	<use xlink:href='#gpPt0' transform='translate(163.5,177.6) scale(4.50)' color='red'/>
	<use xlink:href='#gpPt0' transform='translate(150.9,174.7) scale(4.50)' color='red'/>
	<use xlink:href='#gpPt0' transform='translate(139.2,172.0) scale(4.50)' color='red'/>
	<use xlink:href='#gpPt0' transform='translate(128.2,169.6) scale(4.50)' color='red'/>
	<use xlink:href='#gpPt0' transform='translate(118.0,167.4) scale(4.50)' color='red'/>
</g>
	</g>
	<g id="gnuplot_plot_2" ><title>gnuplot_plot_2</title>
<g style="fill:none; color:green; stroke:currentColor; stroke-width:1.00; stroke-linecap:butt; stroke-linejoin:miter">
	<path stroke='green' stroke-dasharray=' 5,8'  d='M118.0,167.4 L126.3,169.2 L134.5,170.9 L142.7,172.8 L150.9,174.6 L159.1,176.6 L167.3,178.5 L175.5,180.5 
		L183.7,182.6 L191.9,184.7 L200.1,186.9 L208.3,189.1 L216.5,191.3 L224.8,193.6 L233.0,196.0 L241.2,198.4 
		L249.4,200.8 L257.6,203.3 L265.8,205.8 L274.0,208.4 L282.2,211.0 L290.4,213.7 L298.6,216.4 L306.8,219.2 
		L315.0,222.0 L323.3,224.9 L331.5,227.8 L339.7,230.7 L347.9,233.7 L356.1,236.8 L364.3,239.9 L372.5,243.0 
		L380.7,246.2 L388.9,249.5 L397.1,252.8 L405.3,256.1 L413.5,259.5 L421.8,262.9 L430.0,266.4 L438.2,269.9 
		L446.4,273.5 L454.6,277.1 L462.8,280.8 L471.0,284.5 L479.2,288.2 L487.4,292.0 L495.6,295.9 L503.8,299.8 
		L512.0,303.8 L520.3,307.7 L528.5,311.8 L536.7,315.9 L544.9,320.0 L553.1,324.2 L561.3,328.4 L569.5,332.7 
		L577.7,337.0 L585.9,341.4 L594.1,345.8 L602.3,350.3 L610.5,354.8 L618.8,359.4 L627.0,364.0 L635.2,368.6 
		L643.4,373.3 L651.6,378.1 L659.8,382.9 L668.0,387.7 L676.2,392.6 L684.4,397.5 L692.6,402.5 L700.8,407.6 
		L709.0,412.6 L717.3,417.8 L725.5,422.9 L733.7,428.2 L741.9,433.4 L750.1,438.7 L758.3,444.1 L766.5,449.5 
		L774.7,455.0 L782.9,460.5 L791.1,466.0 L799.3,471.6 L807.5,477.3 L815.8,482.9 L824.0,488.7 L832.2,494.5 
		L840.4,500.3 L848.6,506.2 L856.8,512.1 L865.0,518.1 L873.2,524.1 L881.4,530.2 L889.6,536.3 L897.8,542.4 
		L906.0,548.6 L914.3,554.9 L922.5,561.2 L930.7,567.6  h0.01'/></g>
	</g>
	<g style = 'stroke:none; shape-rendering:crispEdges'>
		<polygon fill = 'white' points = '96.8,117.1 412.9,117.1 412.9,81.1 96.8,81.1 '/>
	</g>
<g style="fill:none; color:black; stroke:currentColor; stroke-width:1.00; stroke-linecap:butt; stroke-linejoin:miter">
	<path stroke='black'  d='M96.8,117.1 L96.8,81.1 L412.9,81.1 L412.9,117.1 L96.8,117.1 Z  h0.01'/></g>
	<g id="gnuplot_plot_1" ><title>gnuplot_plot_1</title>
<g style="fill:none; color:red; stroke:currentColor; stroke-width:1.00; stroke-linecap:butt; stroke-linejoin:miter">
	<g transform="translate(354.1,112.6)" style="stroke:none; fill:black; font-family:Arial; font-size:12.00pt; text-anchor:end">
		<text>Kranka-Nikolsona shēma h=pi/10</text>
	</g>
	<use xlink:href='#gpPt0' transform='translate(383.5,108.1) scale(4.50)'/>
</g>
	</g>
	<g id="gnuplot_plot_2" ><title>gnuplot_plot_2</title>
<g style="fill:none; color:green; stroke:currentColor; stroke-width:1.00; stroke-linecap:butt; stroke-linejoin:miter">
	<g transform="translate(354.1,94.6)" style="stroke:none; fill:black; font-family:Arial; font-size:12.00pt; text-anchor:end">
		<text>Kranka-Nikolsona shēma</text>
	</g>
	<path stroke-dasharray=' 5,8'  d='M362.4,90.1 L404.6,90.1  h0.01'/></g>
	</g>
<g style="fill:none; color:black; stroke:currentColor; stroke-width:1.00; stroke-linecap:butt; stroke-linejoin:miter">
	<path stroke='black'  d='M88.5,72.1 L88.5,642.4 L975.0,642.4 L975.0,72.1 L88.5,72.1 Z  h0.01'/></g>
</g>
</svg>

